"Identifiant du bureau";"Code";"Libellé";"Numero de voie";"Libellé de voie";"Complément 1";"Complément 2";"Lieu-dit";"Code postal";"Commune";"Pays";"Code de la circonscription législative";"Libellé de la circonscription législative";"Code du canton";"Libellé du canton";"Type"
0;"8";"COMMUNE OPENELEC A";;;;;;;;;"13-10";"13-10";"13-28";"Trets";"7"
0;"9";"CANTON OPENELEC B";;;;;;;;;;;;;"9"
