"Identifiant du bureau";"Code";"Libellé";"Numero de voie";"Libellé de voie";"Complément 1";"Complément 2";"Lieu-dit";"Code postal";"Commune";"Pays";"Code de la circonscription législative";"Libellé de la circonscription législative";"Code du canton";"Libellé du canton"
9959;"8";"SALLE DES MARIAGES";;;;;;;;;"13-10";"13-10";"13-28";"Trets"
49965;"9";"SALLE DES FETES JEAN MONNET";;;;;;;;;"13-10";"13-10";"13-28";"Trets"
52493;"10";"ECOLE DU CANET";;;;;;;;;"13-10";"13-10";"13-28";"Trets"
30945;"11";"SALLE DES FETES JEAN MONNET";;;;;;;;;"13-10";"13-10";"13-28";"Trets"
35558;"12";"LE GYMNASE";;;;;;;;;"13-10";"13-10";"13-28";"Trets"
24419;"13";"ECOLE DU VILLAGE";;;;;;;;;"13-10";"13-10";"13-28";"Trets"
